鲁迅《呐喊》目录

狂人日记................................................KuangRen
孔乙己..................................................KongYiJi
药......................................................Yao
明天....................................................MingTian
一件小事................................................XiaoShi
头发的故事..............................................TouFa
风波....................................................FengBo
故乡....................................................GuXiang
阿Ｑ正传................................................AQ
端午节..................................................DuanWu
白光....................................................BaiGuang
兔和猫..................................................TuMao
鸭的喜剧................................................Ya
社戏....................................................SheXi

输入：诸葛不亮 jzy@netcom.com

